/* XPM */
static const char * logo_dark_xpm[] = {
"48 48 2 1",
" 	c None",
".	c #000000",
"                     .                          ",
"                   .....                        ",
"                  .......                       ",
"                 ....  ...                      ",
"                ....    ...                     ",
"               ......    ...                    ",
"              ........    ...                   ",
"             ..........    ...                  ",
"            ............    ...                 ",
"           ....  ........    ...                ",
"          ....    ........    ...               ",
"         ....       .......    ...              ",
"        ....         .......    ...             ",
"       ...            .......    ...            ",
"      ...              .......    ...           ",
"      ..                .......    ...          ",
"    .........................................   ",
"   ...........................................  ",
"  ...  ................................     ... ",
"  ..                                         .. ",
"  ..                                         .. ",
"  ..                                         .. ",
"  ..                                         .. ",
"  ..                                         .. ",
"  .........                                  .. ",
" .............                               .. ",
" .............                               .. ",
" ..         ...                              .. ",
" ..          ..                              .. ",
" ..   ...    ..                              .. ",
" ..  ....    ..                              .. ",
" ..  ....    ..                              .. ",
" ..   ...    ..                              .. ",
" ..          ..                              .. ",
" ..         ...                              .. ",
" .............                               .. ",
" .............                               .. ",
"  ..........                                 .. ",
"  ..                                         .. ",
"  ..                                         .. ",
"  ..                                         .. ",
"  ..                                         .. ",
"  ..                                         .. ",
"  ..                                         .. ",
"  ..                                         .. ",
"  ............................................. ",
"    ..........................................  ",
"                                                "};
