/* XPM */
static const char * creditremove20_xpm[] = {
"20 20 174 2",
"  	c None",
". 	c #373737",
"+ 	c #000000",
"@ 	c #8D6723",
"# 	c #A17627",
"$ 	c #A57A28",
"% 	c #856120",
"& 	c #A57B2C",
"* 	c #D19C37",
"= 	c #E0AA3C",
"- 	c #EDB841",
"; 	c #F3BF44",
"> 	c #F2BD42",
", 	c #EEB840",
"' 	c #E2AB3D",
") 	c #B98931",
"! 	c #070502",
"~ 	c #A37F32",
"{ 	c #FFD156",
"] 	c #F1BF4E",
"^ 	c #E9B646",
"/ 	c #E3AE41",
"( 	c #DCA53A",
"_ 	c #E9AE3C",
": 	c #95732B",
"< 	c #7C6025",
"[ 	c #100B01",
"} 	c #644A18",
"| 	c #6D4D17",
"1 	c #0A0804",
"2 	c #372D14",
"3 	c #BD8F38",
"4 	c #DDA641",
"5 	c #DDA843",
"6 	c #F8C153",
"7 	c #987531",
"8 	c #040200",
"9 	c #BDA776",
"0 	c #C6AB6F",
"a 	c #F4CB72",
"b 	c #CDA14B",
"c 	c #6F7072",
"d 	c #404141",
"e 	c #ECC164",
"f 	c #EBC56B",
"g 	c #080603",
"h 	c #BA8D39",
"i 	c #DCAC54",
"j 	c #D9AA5A",
"k 	c #E1B86D",
"l 	c #DDB05D",
"m 	c #77787B",
"n 	c #CCCDCE",
"o 	c #F3F5F8",
"p 	c #1B1A16",
"q 	c #0F0D08",
"r 	c #010100",
"s 	c #B49D5F",
"t 	c #F1D78E",
"u 	c #DEBF77",
"v 	c #69733D",
"w 	c #8E9091",
"x 	c #BFBFBD",
"y 	c #D1D4D9",
"z 	c #E9C789",
"A 	c #EFCC89",
"B 	c #060906",
"C 	c #698C5D",
"D 	c #86C478",
"E 	c #8FC783",
"F 	c #9AD999",
"G 	c #9ECB92",
"H 	c #7ABB76",
"I 	c #929394",
"J 	c #9C978F",
"K 	c #5F8D5B",
"L 	c #303F2E",
"M 	c #B6F3AF",
"N 	c #98D290",
"O 	c #A1D99A",
"P 	c #A0D898",
"Q 	c #A3DB9B",
"R 	c #92CB8C",
"S 	c #84C47F",
"T 	c #152014",
"U 	c #010101",
"V 	c #080908",
"W 	c #678D63",
"X 	c #A5E09D",
"Y 	c #A1D899",
"Z 	c #9ED795",
"` 	c #A8D9A1",
" .	c #5EA759",
"..	c #8FD089",
"+.	c #030503",
"@.	c #000100",
"#.	c #A0C39D",
"$.	c #7EAB78",
"%.	c #9CD793",
"&.	c #B8E4B2",
"*.	c #63AC5E",
"=.	c #86C47F",
"-.	c #84C37E",
";.	c #030403",
">.	c #8DAB8A",
",.	c #AFD7AC",
"'.	c #A9D1A6",
").	c #AED7A8",
"!.	c #5BA757",
"~.	c #B7E7AE",
"{.	c #88C482",
"].	c #91CA8B",
"^.	c #92C38C",
"/.	c #101710",
"(.	c #020602",
"_.	c #8EA08A",
":.	c #E5FBE0",
"<.	c #B6DBB3",
"[.	c #B8DDB2",
"}.	c #AAC9A4",
"|.	c #090D08",
"1.	c #356C32",
"2.	c #AFE3A6",
"3.	c #9DD795",
"4.	c #A8DBA0",
"5.	c #7EBC79",
"6.	c #74A46E",
"7.	c #192718",
"8.	c #233021",
"9.	c #B2EBAB",
"0.	c #BDE0B7",
"a.	c #C9E9C3",
"b.	c #BDE3B7",
"c.	c #ADDFA6",
"d.	c #77A571",
"e.	c #081108",
"f.	c #B8F3B0",
"g.	c #A0D599",
"h.	c #A4D79F",
"i.	c #67AE61",
"j.	c #6DA868",
"k.	c #9ED997",
"l.	c #9ED596",
"m.	c #9CD495",
"n.	c #99D291",
"o.	c #A5D89F",
"p.	c #85CC7E",
"q.	c #202C1E",
"r.	c #324030",
"s.	c #93CE8C",
"t.	c #87C87F",
"u.	c #A2DA9A",
"v.	c #9AD492",
"w.	c #B4E1AD",
"x.	c #73B66C",
"y.	c #B3E0AD",
"z.	c #7BBC76",
"A.	c #060A06",
"B.	c #A7E19F",
"C.	c #A3DA9B",
"D.	c #B6E2B0",
"E.	c #76B772",
"F.	c #96CC91",
"G.	c #A7DCA2",
"H.	c #9ED696",
"I.	c #ABDCA5",
"J.	c #6EB068",
"K.	c #60A95B",
"L.	c #5A6B57",
"M.	c #9CD595",
"N.	c #92CA8D",
"O.	c #A2D59C",
"P.	c #7FBC78",
"Q.	c #89C183",
"  . + +           @ # $ %         + + + ",
"  + + +     & * = - ; > , ' )     + + + ",
"+ + + + + ! ~ { ] ^ / ( _ : < + [ } |   ",
"  + + + + + 1 2 3 4 5 6 7 8 + 9 0 a b   ",
"  c d + + + + + + e f + g + h i j k l   ",
"  m n o p q + + r + + + + s t u v       ",
"  w x y z A + + + + + B C D E F G H     ",
"  I J       K + + + + L M N O P Q R     ",
"          S T + U + + V W X Y Z `  .    ",
"        ..+.+ @.+ #.+ + + $.%.&.*.      ",
"    =.-.;.+ + + >.,.'.+ + + ).!.~.{.    ",
"  ].^./.+ + (._.:.<.[.}.|.+ 1.2.3.4.5.  ",
"  6.7.+ + + 8.9.0.a.b.c.d.e.+ f.g.h.i.  ",
"    + + @.+ j.k.l.m.n.o.p.q.+ r.        ",
"  + + + + s.t.u.P v.w.x.y.z.A.+         ",
"  + + + + B.C.P Z D.E.F.      + +       ",
"  + + @.+ G.Y H.I.J.K.        + +       ",
"  + + + L.M.N.O.P.                      ",
"    + + Q.                              ",
"                                        "};
