/* XPM */
static const char * note_icon20_xpm[] = {
"20 20 138 2",
"  	c None",
". 	c #494A4C",
"+ 	c #644D4B",
"@ 	c #824946",
"# 	c #4A4A4B",
"$ 	c #585650",
"% 	c #605C50",
"& 	c #71694F",
"* 	c #756C4A",
"= 	c #7E7144",
"- 	c #86763C",
"; 	c #695F43",
"> 	c #BB4643",
", 	c #CB2733",
"' 	c #84563B",
") 	c #A8862D",
"! 	c #AF882A",
"~ 	c #AA842D",
"{ 	c #4A4A4D",
"] 	c #E7CD79",
"^ 	c #F6D66C",
"/ 	c #F6D258",
"( 	c #F6CE44",
"_ 	c #F7CB30",
": 	c #FACC1B",
"< 	c #835747",
"[ 	c #AF4340",
"} 	c #A56F2D",
"| 	c #E1AB16",
"1 	c #F7B710",
"2 	c #F4B114",
"3 	c #C09126",
"4 	c #48494B",
"5 	c #6B6658",
"6 	c #F6DA7F",
"7 	c #FFDD6D",
"8 	c #FED958",
"9 	c #FFD544",
"0 	c #FFD42E",
"a 	c #D1AD28",
"b 	c #A1882B",
"c 	c #EEBE0C",
"d 	c #FFC607",
"e 	c #FDBE0B",
"f 	c #FCBA0E",
"g 	c #F6B213",
"h 	c #9D7C32",
"i 	c #424449",
"j 	c #8D8265",
"k 	c #FADC80",
"l 	c #FFD543",
"m 	c #FED12F",
"n 	c #FFCF1A",
"o 	c #FFCF04",
"p 	c #FFC706",
"q 	c #FDC209",
"r 	c #FCBE0C",
"s 	c #F5B114",
"t 	c #866E39",
"u 	c #3C3E47",
"v 	c #AA9C70",
"w 	c #FCDE81",
"x 	c #FFD958",
"y 	c #FFD12F",
"z 	c #FFCD1A",
"A 	c #FFCA07",
"B 	c #FEC606",
"C 	c #FDBE0C",
"D 	c #7A673D",
"E 	c #3D3F47",
"F 	c #C2B07B",
"G 	c #FEE082",
"H 	c #FECA07",
"I 	c #FCBE0B",
"J 	c #7D6A3C",
"K 	c #47484B",
"L 	c #D0BC81",
"M 	c #FFE182",
"N 	c #7D693D",
"O 	c #575652",
"P 	c #D5C083",
"Q 	c #FFD959",
"R 	c #FFCD1B",
"S 	c #F7B313",
"T 	c #8D7337",
"U 	c #434750",
"V 	c #555451",
"W 	c #D4C082",
"X 	c #F9B412",
"Y 	c #A4802F",
"Z 	c #4B4C4D",
"` 	c #D0BC80",
" .	c #FCB611",
"..	c #C19126",
"+.	c #52514F",
"@.	c #C2B07A",
"#.	c #FDE082",
"$.	c #FDB611",
"%.	c #D79E1F",
"&.	c #54514A",
"*.	c #C4B27A",
"=.	c #FBDD80",
"-.	c #E7A71A",
";.	c #6F6042",
">.	c #998D69",
",.	c #F8DB7F",
"'.	c #FEC209",
").	c #F9B80F",
"!.	c #F1B015",
"~.	c #B68A2A",
"{.	c #5C5548",
"].	c #746E5B",
"^.	c #ECD17B",
"/.	c #F5D56B",
"(.	c #F5D257",
"_.	c #F8D044",
":.	c #F6CB30",
"<.	c #F4C51D",
"[.	c #EFBF0D",
"}.	c #E9B80F",
"|.	c #E0AF14",
"1.	c #CC9E1E",
"2.	c #9E8030",
"3.	c #605846",
"4.	c #424750",
"5.	c #4B4B4C",
"6.	c #CFB972",
"7.	c #DABF66",
"8.	c #BEA654",
"9.	c #968549",
"0.	c #8E7D42",
"a.	c #85763D",
"b.	c #7C6E3A",
"c.	c #71653E",
"d.	c #5F5945",
"e.	c #48494E",
"f.	c #3E4452",
"g.	c #484A4F",
"                                        ",
"                                        ",
"        .             + @               ",
"      # $ % & * = - ; > , ' ) ! ~       ",
"      { ] ^ / ( _ : < [ } | 1 2 3       ",
"    4 5 6 7 8 9 0 a b c d e f g h       ",
"    i j k 7 8 l m n o p q r f s t       ",
"    u v w 7 x l y z A B q C f 2 D       ",
"    E F G 7 8 9 m z H B q I f 2 J       ",
"    K L M 7 8 9 m z H B q I f g N       ",
"    O P M 7 Q l y R A B q C f S T U     ",
"    V W M 7 8 l m z H B q r f X Y       ",
"    Z ` M 7 x l y z A B q C f  ...U     ",
"    +.@.#.7 8 9 m z H B q I f $.%.&.    ",
"      *.=.7 Q l y R A B q C f  .-.;.    ",
"      >.,.7 8 l m z H B '.e ).!.~.{.Z   ",
"      ].^./.(._.:.<.[.}.|.1.2.3.4.5.    ",
"        6.7.8.9.0.a.b.c.d.e.f.g.        ",
"                                        ",
"                                        "};
